30/03/2020,10
14/04/2020,15
20/04/2020,15
25/04/2020,17
28/04/2020,20
02/05/2020,22
10/05/2020,26
25/05/2020,23
03/06/2020,18
27/10/2020,08
28/11/2020,03
29/12/2020,09
30/04/2021,19
01/05/2021,15
02/09/2021,20
